{
  /*
  "latex-workshop.latex.toolchain": [
    {
      "command": "latexmk",
      "args": [
        "-xelatex",
        "-shell-escape",
        "-synctex=1",
        "-interaction=nonstopmode",
        "-file-line-error",
        "-pdf",
        "%DOC%"
      ]
    }
  ],
  */
  //"latex-workshop.latex.outputDir": "build",

  "vim.easymotion": true,
  "vim.leader": ",",
  "code-runner.runInTerminal": true,
  "window.zoomLevel": 0,
  "editor.fontSize": 13,
  "window.titleBarStyle": "custom",
  "languageServerHaskell.hieExecutablePath": "hie-wrapper",
} 